<svg width="230" height="230" viewBox="0 0 230 230" fill="none" xmlns="http://www.w3.org/2000/svg">
<rect width="230" height="230" fill="#F5F5F5"/>
<path d="M39 107.898H104.9V122.898H39V107.898Z" fill="#F2FDB5"/>
<path d="M54.4998 113.599C54.2998 113.699 53.6998 113.699 52.6998 113.699H48.7998V109.999H53.2998C54.1998 109.999 54.7998 110.099 55.2998 110.199C55.2998 110.099 55.2998 109.999 55.2998 109.899C55.2998 108.599 55.3998 107.499 55.4998 106.699C53.4998 106.799 51.3998 106.799 49.1998 106.799C48.4998 106.799 47.7998 106.799 47.0998 106.799H46.0998C45.7998 106.799 45.4998 106.799 45.2998 106.799V124.799H48.9998V116.999H53.0998C53.7998 116.999 54.2998 116.999 54.7998 117.099L54.4998 113.599Z" fill="white"/>
<path d="M59.2998 124.699H62.9998V106.699C62.6998 106.799 62.2998 106.799 61.8998 106.799H60.8998C60.6998 106.799 60.1998 106.799 59.2998 106.799V124.699Z" fill="white"/>
<path d="M82.7996 113.898C82.1996 113.998 81.3996 114.098 80.3996 114.098H78.7996C76.9996 114.098 75.9996 114.098 75.7996 113.998L75.8996 117.498C75.9996 117.298 76.4996 117.298 77.3996 117.298H79.0996V119.498C79.0996 119.798 78.9996 120.098 78.7996 120.398C78.1996 121.198 77.0996 121.698 75.4996 121.698C73.9996 121.698 72.7996 121.198 71.8996 120.198C70.9996 119.198 70.4996 117.898 70.4996 116.198C70.4996 114.298 70.9996 112.798 72.0996 111.598C72.5996 110.998 73.1996 110.598 73.8996 110.298C74.5996 109.998 75.4996 109.798 76.3996 109.798C77.3996 109.798 78.2996 109.998 79.1996 110.298C80.0996 110.598 80.6996 111.098 81.0996 111.598H81.1996L81.3996 107.598C80.1996 106.798 78.4996 106.398 76.3996 106.398C73.2996 106.398 70.7996 107.398 68.9996 109.398C67.3996 111.198 66.5996 113.398 66.5996 116.098C66.5996 118.598 67.3996 120.698 68.8996 122.298C70.4996 123.998 72.6996 124.898 75.3996 124.898C77.3996 124.898 78.9996 124.398 80.3996 123.398C81.6996 122.498 82.3996 121.398 82.3996 120.098V115.898C82.5996 114.898 82.6996 114.198 82.7996 113.898Z" fill="white"/>
<path d="M92.1999 106.498C90.2999 106.498 88.6999 106.998 87.5999 107.998C86.4999 108.998 85.8999 110.298 85.8999 111.898C85.8999 113.398 86.2999 114.598 87.1999 115.498C87.6999 115.998 88.2999 116.398 89.0999 116.698C89.8999 116.998 90.8999 117.198 92.0999 117.398C93.2999 117.498 94.1999 117.698 94.6999 118.098C94.9999 118.298 95.1999 118.498 95.2999 118.698C95.3999 118.898 95.4999 119.198 95.4999 119.598C95.4999 119.998 95.3999 120.298 95.1999 120.598C94.5999 121.498 93.3999 121.898 91.5999 121.898C89.0999 121.898 87.1999 120.898 86.0999 118.998L85.8999 123.498C86.2999 123.798 86.6999 123.998 87.1999 124.198C88.6999 124.798 90.2999 125.098 91.7999 125.098C93.6999 125.098 95.2999 124.598 96.5999 123.698C98.0999 122.598 98.7999 121.098 98.7999 119.098C98.7999 117.598 98.2999 116.398 97.3999 115.598C96.8999 115.198 96.2999 114.798 95.4999 114.498C94.6999 114.198 93.6999 113.998 92.4999 113.798C91.2999 113.598 90.3999 113.298 89.7999 112.898C89.3999 112.598 89.1999 112.098 89.1999 111.398C89.1999 110.898 89.3999 110.498 89.8999 110.098C90.0999 109.998 90.3999 109.798 90.6999 109.798C90.9999 109.698 91.3999 109.698 91.8999 109.698C92.3999 109.698 92.8999 109.798 93.3999 109.898C94.9999 110.198 96.0999 110.798 96.7999 111.798H96.8999L97.0999 107.798C95.7999 106.898 94.0999 106.498 92.1999 106.498Z" fill="white"/>
<path d="M53.3994 115.8C52.9994 115.8 52.3994 115.7 51.6994 115.7H47.5994V123.5H43.8994V105.5C44.0994 105.5 44.3994 105.5 44.6994 105.5H45.6994C46.3994 105.5 47.0994 105.5 47.7994 105.5C49.9994 105.5 52.0994 105.5 54.0994 105.4C54.0994 106.3 54.0994 107.3 54.0994 108.6C54.0994 108.7 54.0994 108.8 54.0994 108.9C53.5994 108.8 52.9994 108.7 52.0994 108.7H47.5994V112.4H51.4994C52.4994 112.4 53.0994 112.4 53.2994 112.3L53.3994 115.8ZM58.0994 105.5C58.9994 105.5 59.4994 105.6 59.6994 105.6H60.6994C61.1994 105.6 61.5994 105.6 61.7994 105.5V123.5H58.0994V105.5ZM81.5994 112.7C81.3994 113 81.2994 113.7 81.2994 114.9V119.1C81.2994 120.4 80.5994 121.5 79.2994 122.4C77.8994 123.4 76.2994 123.9 74.2994 123.9C71.5994 123.9 69.3994 123 67.7994 121.3C66.1994 119.7 65.3994 117.6 65.3994 115.1C65.3994 112.4 66.1994 110.2 67.7994 108.4C69.5994 106.4 71.9994 105.4 75.1994 105.4C77.2994 105.4 78.8994 105.8 80.1994 106.6L79.9994 110.6H79.8994C79.5994 110.1 78.9994 109.6 77.9994 109.3C77.0994 109 76.1994 108.8 75.1994 108.8C74.1994 108.8 73.3994 109 72.6994 109.3C71.9994 109.6 71.3994 110 70.8994 110.6C69.7994 111.8 69.2994 113.3 69.2994 115.2C69.2994 116.9 69.7994 118.2 70.6994 119.2C71.5994 120.2 72.7994 120.7 74.2994 120.7C75.8994 120.7 76.9994 120.3 77.5994 119.4C77.7994 119.1 77.8994 118.8 77.8994 118.5V116.3H76.1994C75.2994 116.3 74.7994 116.4 74.6994 116.5L74.5994 113C74.7994 113.1 75.8994 113.1 77.6994 113.1H79.2994C80.0994 112.9 80.8994 112.8 81.5994 112.7ZM95.9994 106.6L95.6994 110.6H95.5994C94.8994 109.6 93.7994 109 92.1994 108.7C91.6994 108.6 91.1994 108.6 90.7994 108.6C90.3994 108.6 89.8994 108.6 89.5994 108.7C89.2994 108.8 88.9994 108.9 88.7994 109C88.2994 109.3 88.0994 109.7 88.0994 110.3C88.0994 111 88.2994 111.5 88.6994 111.8C89.1994 112.2 90.0994 112.5 91.3994 112.7C92.5994 112.9 93.5994 113.1 94.3994 113.4C95.1994 113.7 95.7994 114.1 96.2994 114.5C97.1994 115.3 97.6994 116.5 97.6994 118C97.6994 120 96.9994 121.5 95.4994 122.6C94.1994 123.5 92.5994 124 90.6994 124C89.0994 124 87.5994 123.7 86.0994 123.1C85.5994 122.9 85.1994 122.7 84.7994 122.4L84.8994 117.9H84.9994C86.0994 119.8 87.8994 120.8 90.4994 120.8C92.2994 120.8 93.4994 120.4 94.0994 119.5C94.2994 119.2 94.3994 118.9 94.3994 118.5C94.3994 118.1 94.2994 117.8 94.1994 117.6C94.0994 117.4 93.8994 117.2 93.5994 117C93.0994 116.7 92.1994 116.4 90.9994 116.3C89.7994 116.2 88.7994 116 87.9994 115.6C87.1994 115.3 86.5994 114.9 86.0994 114.4C85.2994 113.5 84.7994 112.3 84.7994 110.8C84.7994 109.2 85.3994 107.9 86.4994 106.9C87.5994 105.9 89.1994 105.4 91.0994 105.4C92.8994 105.3 94.5994 105.7 95.9994 106.6Z" stroke="#2D242D" stroke-width="0.4475" stroke-miterlimit="3.4427"/>
<path d="M104.699 111.701L108.999 118.701L113.199 111.101V122.801C113.599 122.701 114.399 122.701 115.599 122.701H116.599V105.401C115.999 105.401 115.399 105.401 114.599 105.401C113.799 105.401 113.299 105.401 112.999 105.301L108.799 112.701L104.399 105.301C104.099 105.401 103.599 105.401 102.999 105.401C102.299 105.401 101.699 105.401 101.199 105.401V122.801H102.199C103.399 122.801 104.199 122.801 104.599 122.901V111.701H104.699Z" fill="#2D242D"/>
<path d="M123.699 119H129.599L130.799 122.8H132.799C132.999 122.8 133.199 122.8 133.399 122.8C133.899 122.8 134.099 122.8 134.099 122.8C134.299 122.8 134.499 122.8 134.699 122.8L128.899 106.9C128.599 106.2 128.499 105.7 128.499 105.6C128.499 105.5 128.499 105.5 128.499 105.4C127.799 105.4 127.099 105.4 126.599 105.4C125.999 105.4 125.399 105.4 124.799 105.4C124.799 105.4 124.799 105.5 124.799 105.6C124.799 105.7 124.699 106.1 124.399 106.8L118.699 122.7H119.699C120.699 122.7 121.599 122.7 122.299 122.8L123.699 119ZM124.699 115.9L126.599 109.8L128.599 115.9H124.699Z" fill="#2D242D"/>
<path d="M145.399 122.8C147.199 122.6 148.499 122.6 149.399 122.8L149.499 122.7C149.199 122.5 148.799 121.8 148.299 120.6L145.599 115C146.099 114.8 146.499 114.5 146.799 114.1C147.899 113.1 148.399 111.8 148.399 110.4C148.399 108.5 147.799 107.2 146.599 106.3C145.399 105.4 143.599 105 141.199 105C139.399 105 137.899 105.1 136.699 105.2V122.6H140.199V115.8C140.799 115.8 141.199 115.9 141.499 115.9C141.799 115.9 142.099 115.9 142.299 115.9L145.399 122.8ZM144.199 108.7C144.799 109.1 145.199 109.7 145.199 110.6C145.199 111.5 144.899 112.2 144.299 112.7C143.999 112.9 143.699 113.1 143.299 113.2C142.899 113.3 142.399 113.3 141.899 113.3C141.299 113.3 140.799 113.3 140.399 113.2V108.2C140.799 108.2 141.199 108.1 141.699 108.1C142.699 108.1 143.599 108.3 144.199 108.7Z" fill="#2D242D"/>
<path d="M155.699 117.399L157.599 114.899L160.899 121.199C161.099 121.599 161.199 122.099 161.299 122.699C161.799 122.599 162.899 122.599 164.699 122.599H165.499C165.299 122.399 165.099 121.999 164.899 121.599L159.899 111.799L164.899 105.199C164.499 105.299 163.899 105.299 162.999 105.299H162.299C161.899 105.299 161.499 105.299 160.899 105.299L155.599 112.599V105.199C155.299 105.299 154.799 105.299 153.999 105.299H153.599C153.399 105.299 153.199 105.299 152.799 105.299H152.299V122.699H153.299C154.199 122.699 154.999 122.699 155.599 122.799V117.399H155.699Z" fill="#2D242D"/>
<path d="M171.299 119.6V114.9H174.499C175.199 114.9 175.699 114.9 176.099 115V111.8C175.899 111.9 175.299 111.9 174.399 111.9H171.299V108.6H175.399C176.199 108.6 176.899 108.7 177.299 108.8C177.299 108.7 177.299 108.6 177.299 108.5C177.299 107.2 177.299 106.2 177.399 105.4C175.499 105.5 173.499 105.5 171.499 105.5C170.799 105.5 170.099 105.5 169.499 105.5H168.599C168.299 105.5 168.099 105.5 167.799 105.5V122.9H177.599L177.699 119.6C177.499 119.7 177.099 119.8 176.599 119.8H171.299V119.6Z" fill="#2D242D"/>
<path d="M187.499 108.3H189.499C190.799 108.3 191.499 108.3 191.799 108.4V105.1C191.699 105.2 191.599 105.2 191.499 105.3C191.399 105.4 190.899 105.4 190.099 105.4H181.899C180.599 105.4 179.899 105.4 179.599 105.3V108.6C179.699 108.5 179.799 108.5 179.899 108.4C179.999 108.3 180.499 108.3 181.299 108.3H183.899V122.7H184.299C185.999 122.7 187.099 122.7 187.499 122.8V108.3Z" fill="#2D242D"/>
</svg>
