<svg width="18" height="18" viewBox="0 0 18 18" fill="none" xmlns="http://www.w3.org/2000/svg">
<g id="baseline-delete-24px">
<path id="Shape" fill-rule="evenodd" clip-rule="evenodd" d="M11.625 3H14.25V4.5H3.75V3H6.375L7.125 2.25H10.875L11.625 3ZM6 15.75C5.175 15.75 4.5 15.075 4.5 14.25V5.25H13.5V14.25C13.5 15.075 12.825 15.75 12 15.75H6Z" fill="#2D242D"/>
</g>
</svg>
