<svg width="17" height="16" viewBox="0 0 17 16" fill="none" xmlns="http://www.w3.org/2000/svg">
<g id="My Profile">
<path id="Rectangle" d="M1 16V16C1 13.5147 3.01472 11.5 5.5 11.5H11.5C13.9853 11.5 16 13.5147 16 16V16" stroke="#2D242D" stroke-linecap="round"/>
<circle id="Oval" cx="8.5" cy="4.75" r="3.75" stroke="#2D242D"/>
</g>
</svg>
