<svg width="20" height="20" viewBox="0 0 20 20" fill="none" xmlns="http://www.w3.org/2000/svg">
<g id="Newsletter">
<rect id="Rectangle" x="0.5" y="0.5" width="19" height="19" rx="3.5" fill="white" stroke="#2D242D"/>
<path id="Rectangle_2" d="M0.5 4C0.5 2.067 2.067 0.5 4 0.5H16C17.933 0.5 19.5 2.067 19.5 4V6.66148L10 10.4615L0.5 6.66148V4Z" fill="#2D242D" fill-opacity="0.15" stroke="#2D242D"/>
</g>
</svg>
