<?xml version="1.0" encoding="UTF-8"?>
<svg width="52px" height="52px" viewBox="0 0 52 52" version="1.1" xmlns="http://www.w3.org/2000/svg" xmlns:xlink="http://www.w3.org/1999/xlink">
    <title>Next Copy 10</title>
    <g id="Home-Page" stroke="none" stroke-width="1" fill="none" fill-rule="evenodd" opacity="0.5">
        <g id="FigsMarket-Home-Page-Desktop-Rev003" transform="translate(-339.000000, -5252.000000)" stroke="#2D242D">
            <g id="Group-57" transform="translate(340.000000, 5068.000000)">
                <g id="Group-53" transform="translate(0.000000, 100.000000)">
                    <g id="Next-Copy-10" transform="translate(25.000000, 110.000000) scale(-1, 1) translate(-25.000000, -110.000000) translate(0.000000, 85.000000)">
                        <circle id="Oval-Copy" transform="translate(25.000000, 25.000000) scale(-1, 1) translate(-25.000000, -25.000000) " cx="25" cy="25" r="25.5"></circle>
                        <polyline id="Rectangle-Copy" stroke-width="2" transform="translate(22.435897, 25.000000) scale(-1, 1) rotate(-135.000000) translate(-22.435897, -25.000000) " points="17.9487179 20.5128205 26.9230769 20.5128205 26.9230769 29.4871795"></polyline>
                    </g>
                </g>
            </g>
        </g>
    </g>
</svg>