<svg width="20" height="20" viewBox="0 0 20 20" fill="none" xmlns="http://www.w3.org/2000/svg">
<path id="Shape" fill-rule="evenodd" clip-rule="evenodd" d="M14.9623 14.1197L19.8226 18.98C20.0532 19.2106 20.0532 19.592 19.8226 19.8226C19.7073 19.9424 19.5521 20 19.4013 20C19.2506 20 19.0953 19.9379 18.98 19.8226L14.1197 14.9623C12.6208 16.2661 10.6652 17.0554 8.52772 17.0554C3.82705 17.0554 0 13.2284 0 8.52772C0 3.82705 3.82262 0 8.52772 0C13.2284 0 17.0554 3.82262 17.0554 8.52772C17.0554 10.6652 16.2661 12.6208 14.9623 14.1197ZM8.52328 1.19734C4.48337 1.19734 1.1929 4.48337 1.1929 8.52772C1.1929 12.5721 4.48337 15.8625 8.52328 15.8625C12.5676 15.8625 15.8537 12.5676 15.8537 8.52772C15.8537 4.48781 12.5676 1.19734 8.52328 1.19734Z" fill="#2D242D"/>
</svg>
