<?xml version="1.0" encoding="UTF-8"?>
<svg width="32px" height="32px" viewBox="0 0 32 32" version="1.1" xmlns="http://www.w3.org/2000/svg" xmlns:xlink="http://www.w3.org/1999/xlink">
    <!-- Generator: Sketch 54.1 (76490) - https://sketchapp.com -->
    <title>tools-and-utensils</title>
    <desc>Created with Sketch.</desc>
    <g id="Food" stroke="none" stroke-width="1" fill="none" fill-rule="evenodd">
        <g id="tools-and-utensils" transform="translate(1.000000, 1.000000)" fill="#FFFFFF" fill-rule="nonzero">
            <path d="M29.516129,12.0967742 L27.2419355,12.0967742 C26.9331048,10.7888105 26.4146371,9.53939516 25.7066129,8.39709677 L27.3154839,6.78822581 C27.504375,6.59927419 27.504375,6.29298387 27.3154839,6.10403226 L23.8959677,2.68258065 C23.7070161,2.49368952 23.4007258,2.49368952 23.2117742,2.68258065 L21.6024194,4.29145161 C20.4602419,3.58397177 19.2110081,3.06610887 17.9032258,2.75806452 L17.9032258,0.483870968 C17.9032258,0.216653226 17.6865726,0 17.4193548,0 L12.5806452,0 C12.3134274,0 12.0967742,0.216653226 12.0967742,0.483870968 L12.0967742,2.75806452 C10.788871,3.06671371 9.5396371,3.58518145 8.39758065,4.2933871 L6.78822581,2.68258065 C6.59927419,2.49368952 6.29298387,2.49368952 6.10403226,2.68258065 L2.68258065,6.10403226 C2.49368952,6.29298387 2.49368952,6.59927419 2.68258065,6.78822581 L4.29145161,8.39709677 C3.58409274,9.53951613 3.06629032,10.7889315 2.75806452,12.0967742 L0.483870968,12.0967742 C0.216653226,12.0967742 0,12.3134274 0,12.5806452 L0,17.4193548 C0,17.6865726 0.216653226,17.9032258 0.483870968,17.9032258 L2.75806452,17.9032258 C3.06689516,19.2111895 3.5853629,20.4606048 4.2933871,21.6029032 L2.68258065,23.2117742 C2.49368952,23.4007258 2.49368952,23.7070161 2.68258065,23.8959677 L6.10403226,27.3174194 C6.29600806,27.4989315 6.59625,27.4989315 6.78822581,27.3174194 L8.39709677,25.7085484 C9.53951613,26.4159073 10.7889315,26.9337097 12.0967742,27.2419355 L12.0967742,29.516129 C12.0967742,29.7833468 12.3134274,30 12.5806452,30 L17.4193548,30 C17.6865726,30 17.9032258,29.7833468 17.9032258,29.516129 L17.9032258,27.2419355 C19.2111895,26.9331048 20.4606048,26.4146371 21.6029032,25.7066129 L23.2117742,27.3154839 C23.4007258,27.504375 23.7070161,27.504375 23.8959677,27.3154839 L27.3174194,23.8940323 C27.5063105,23.7050806 27.5063105,23.3987903 27.3174194,23.2098387 L25.7085484,21.6009677 C26.4157258,20.4591532 26.9335282,19.2104032 27.2419355,17.9032258 L29.516129,17.9032258 C29.7833468,17.9032258 30,17.6865726 30,17.4193548 L30,12.5806452 C30,12.3134274 29.7833468,12.0967742 29.516129,12.0967742 Z M29.0322581,16.9354839 L26.8548387,16.9354839 C26.624879,16.9354234 26.4266129,17.0972782 26.3806452,17.3225806 C26.0850605,18.7789113 25.5099798,20.1641734 24.6870968,21.4016129 C24.5597782,21.5934677 24.5852419,21.8484677 24.7480645,22.0112903 L26.2906452,23.5533871 L23.5533871,26.2906452 L22.0112903,24.7480645 C21.8484677,24.5852419 21.5934677,24.5597782 21.4016129,24.6870968 C20.1641734,25.5099798 18.7789113,26.0850605 17.3225806,26.3806452 C17.0972782,26.4266129 16.9354234,26.624879 16.9354839,26.8548387 L16.9354839,29.0322581 L13.0645161,29.0322581 L13.0645161,26.8548387 C13.0645766,26.624879 12.9027218,26.4266129 12.6774194,26.3806452 C11.2210887,26.0850605 9.83582661,25.5099798 8.5983871,24.6870968 C8.40653226,24.5597782 8.15153226,24.5852419 7.98870968,24.7480645 L6.4466129,26.2906452 L3.70887097,23.553871 L5.25145161,22.0117742 C5.41427419,21.8489516 5.4397379,21.5939516 5.31241935,21.4020968 C4.48953629,20.1646573 3.91445565,18.7793952 3.61887097,17.3230645 C3.57308468,17.0977016 3.37512097,16.9357258 3.14516129,16.9354839 L0.967741935,16.9354839 L0.967741935,13.0645161 L3.14516129,13.0645161 C3.37512097,13.0645766 3.5733871,12.9027218 3.61935484,12.6774194 C3.91493952,11.2210887 4.49002016,9.83582661 5.31290323,8.5983871 C5.44022177,8.40653226 5.41469758,8.15153226 5.25193548,7.98870968 L3.70887097,6.44612903 L6.44612903,3.70887097 L7.98870968,5.25145161 C8.15153226,5.41427419 8.40653226,5.4397379 8.5983871,5.31241935 C9.83570565,4.48971774 11.2207863,3.91457661 12.6769355,3.61887097 C12.9022984,3.57308468 13.0642742,3.37512097 13.0645161,3.14516129 L13.0645161,0.967741935 L16.9354839,0.967741935 L16.9354839,3.14516129 C16.9354234,3.37512097 17.0972782,3.5733871 17.3225806,3.61935484 C18.7787298,3.91506048 20.1638105,4.49020161 21.401129,5.31290323 C21.5929839,5.44022177 21.8479839,5.41475806 22.0108065,5.25193548 L23.5533871,3.70935484 L26.2906452,6.4466129 L24.7480645,7.98870968 C24.5852419,8.15153226 24.5597782,8.40653226 24.6870968,8.5983871 C25.5099798,9.83582661 26.0850605,11.2210887 26.3806452,12.6774194 C26.4266129,12.9027218 26.624879,13.0645766 26.8548387,13.0645161 L29.0322581,13.0645161 L29.0322581,16.9354839 Z" id="Shape" stroke="#FFFFFF" stroke-width="0.5"></path>
            <path d="M29.516129,12.0967742 L27.2419355,12.0967742 C26.9331048,10.7888105 26.4146371,9.53939516 25.7066129,8.39709677 L27.3154839,6.78822581 C27.504375,6.59927419 27.504375,6.29298387 27.3154839,6.10403226 L23.8959677,2.68258065 C23.7070161,2.49368952 23.4007258,2.49368952 23.2117742,2.68258065 L21.6024194,4.29145161 C20.4602419,3.58397177 19.2110081,3.06610887 17.9032258,2.75806452 L17.9032258,0.483870968 C17.9032258,0.216653226 17.6865726,0 17.4193548,0 L12.5806452,0 C12.3134274,0 12.0967742,0.216653226 12.0967742,0.483870968 L12.0967742,2.75806452 C10.788871,3.06671371 9.5396371,3.58518145 8.39758065,4.2933871 L6.78822581,2.68258065 C6.59927419,2.49368952 6.29298387,2.49368952 6.10403226,2.68258065 L2.68258065,6.10403226 C2.49368952,6.29298387 2.49368952,6.59927419 2.68258065,6.78822581 L4.29145161,8.39709677 C3.58409274,9.53951613 3.06629032,10.7889315 2.75806452,12.0967742 L0.483870968,12.0967742 C0.216653226,12.0967742 0,12.3134274 0,12.5806452 L0,17.4193548 C0,17.6865726 0.216653226,17.9032258 0.483870968,17.9032258 L2.75806452,17.9032258 C3.06689516,19.2111895 3.5853629,20.4606048 4.2933871,21.6029032 L2.68258065,23.2117742 C2.49368952,23.4007258 2.49368952,23.7070161 2.68258065,23.8959677 L6.10403226,27.3174194 C6.29600806,27.4989315 6.59625,27.4989315 6.78822581,27.3174194 L8.39709677,25.7085484 C9.53951613,26.4159073 10.7889315,26.9337097 12.0967742,27.2419355 L12.0967742,29.516129 C12.0967742,29.7833468 12.3134274,30 12.5806452,30 L17.4193548,30 C17.6865726,30 17.9032258,29.7833468 17.9032258,29.516129 L17.9032258,27.2419355 C19.2111895,26.9331048 20.4606048,26.4146371 21.6029032,25.7066129 L23.2117742,27.3154839 C23.4007258,27.504375 23.7070161,27.504375 23.8959677,27.3154839 L27.3174194,23.8940323 C27.5063105,23.7050806 27.5063105,23.3987903 27.3174194,23.2098387 L25.7085484,21.6009677 C26.4157258,20.4591532 26.9335282,19.2104032 27.2419355,17.9032258 L29.516129,17.9032258 C29.7833468,17.9032258 30,17.6865726 30,17.4193548 L30,12.5806452 C30,12.3134274 29.7833468,12.0967742 29.516129,12.0967742 Z" id="Path" fill-opacity="0.2"></path>
            <path d="M15,9.67741935 C12.0604234,9.67741935 9.67741935,12.0604234 9.67741935,15 C9.67741935,17.9395766 12.0604234,20.3225806 15,20.3225806 C17.9395766,20.3225806 20.3225806,17.9395766 20.3225806,15 C20.3191331,12.061875 17.938125,9.68086694 15,9.67741935 Z M15,19.3548387 C12.5949194,19.3548387 10.6451613,17.4050806 10.6451613,15 C10.6451613,12.5948589 12.5949194,10.6451613 15,10.6451613 C17.4051411,10.6451613 19.3548387,12.5948589 19.3548387,15 C19.3521774,17.4039919 17.4039919,19.3521774 15,19.3548387 Z" id="Shape" stroke="#FFFFFF" stroke-width="0.5"></path>
        </g>
    </g>
</svg>